{
    "swagger": {
        "outputDirectory": "./dist/public",
        "entryFile": "./src/backoffice.public.api.server.ts",
        "basePath": "/backoffice-public/v1"
    },
    "routes": {
        "basePath": "/backoffice-public/v1",
        "entryFile": "./src/backoffice.public.api.server.ts",
        "routesDir": "./src"
    }
}
